[{"line":1,"elements":[{"line":3,"name":"get all active users","description":"","id":"get-all-active-users","type":"scenario","keyword":"Scenario","steps":[{"name":"def query = {status:'active', gender: 'male'}","result":{"duration":2672900,"status":"passed"},"match":{"location":"karate","arguments":[]},"keyword":"*","line":4},{"name":"url baseUrl+'\/public\/v1\/users'","result":{"duration":3859700,"status":"passed"},"match":{"location":"karate","arguments":[]},"keyword":"Given","line":5},{"name":"params query","result":{"duration":237400,"status":"passed"},"match":{"location":"karate","arguments":[]},"keyword":"And","line":6},{"name":"method GET","result":{"duration":2190709500,"status":"passed"},"match":{"location":"karate","arguments":[]},"keyword":"When","line":7,"doc_string":{"content_type":"","value":"16:53:40.258 request:\n1 > GET https:\/\/gorest.co.in\/public\/v1\/users?status=active&gender=male\n1 > Accept-Encoding: gzip,deflate\n1 > Connection: Keep-Alive\n1 > Host: gorest.co.in\n1 > User-Agent: Apache-HttpClient\/4.5.12 (Java\/11.0.15.1)\n\n16:53:42.115 response time in milliseconds: 1857.28\n1 < 200\n1 < CF-Cache-Status: DYNAMIC\n1 < CF-RAY: 72fc48f0b9497bfb-LAX\n1 < Cache-Control: max-age=0, private, must-revalidate\n1 < Connection: keep-alive\n1 < Content-Type: application\/json; charset=utf-8\n1 < Date: Sun, 24 Jul 2022 11:23:39 GMT\n1 < ETag: W\/\"86b2f0007b9e7e81fee10167db9a5462\"\n1 < Expect-CT: max-age=604800, report-uri=\"https:\/\/report-uri.cloudflare.com\/cdn-cgi\/beacon\/expect-ct\"\n1 < NEL: {\"success_fraction\":0,\"report_to\":\"cf-nel\",\"max_age\":604800}\n1 < Referrer-Policy: strict-origin-when-cross-origin\n1 < Report-To: {\"endpoints\":[{\"url\":\"https:\\\/\\\/a.nel.cloudflare.com\\\/report\\\/v3?s=8kOgIBU2XOUxDCALg70eq%2FnGnIUm0%2BXxD78Ig%2BiICLkQ7UICF1tRvnOEBizDbOGXR%2FHI1SAquypyVuTckMXShW%2FV5LAVKpJNcWhWRFMUEiIwyqu7Nvzo7n4LJe2h%2BG4%3D\"}],\"group\":\"cf-nel\",\"max_age\":604800}\n1 < Server: cloudflare\n1 < Strict-Transport-Security: max-age=63072000; includeSubDomains\n1 < Transfer-Encoding: chunked\n1 < Vary: [Accept-Encoding, Origin]\n1 < X-Content-Type-Options: nosniff\n1 < X-Download-Options: noopen\n1 < X-Frame-Options: SAMEORIGIN\n1 < X-Permitted-Cross-Domain-Policies: none\n1 < X-Request-Id: b853a63c-e3f4-4506-90f7-305a07147b97\n1 < X-Runtime: 0.007257\n1 < X-XSS-Protection: 0\n1 < alt-svc: h3=\":443\"; ma=86400, h3-29=\":443\"; ma=86400\n{\"meta\":{\"pagination\":{\"total\":889,\"pages\":89,\"page\":1,\"limit\":10,\"links\":{\"previous\":null,\"current\":\"https:\/\/gorest.co.in\/public\/v1\/users?page=1\",\"next\":\"https:\/\/gorest.co.in\/public\/v1\/users?page=2\"}}},\"data\":[{\"id\":3616,\"name\":\"Aatmaj Sinha\",\"email\":\"sinha_aatmaj@zemlak-pfannerstill.net\",\"gender\":\"male\",\"status\":\"active\"},{\"id\":3614,\"name\":\"Chakravarti Kaul\",\"email\":\"chakravarti_kaul@thiel.net\",\"gender\":\"male\",\"status\":\"active\"},{\"id\":3609,\"name\":\"Chandini Butt\",\"email\":\"chandini_butt@johnson.info\",\"gender\":\"male\",\"status\":\"active\"},{\"id\":3607,\"name\":\"Bala Mehra\",\"email\":\"bala_mehra@schultz.biz\",\"gender\":\"male\",\"status\":\"active\"},{\"id\":3602,\"name\":\"Navin Guha Jr.\",\"email\":\"jr_guha_navin@kassulke.name\",\"gender\":\"male\",\"status\":\"active\"},{\"id\":3600,\"name\":\"Vaishnavi Bharadwaj\",\"email\":\"vaishnavi_bharadwaj@jones.net\",\"gender\":\"male\",\"status\":\"active\"},{\"id\":3592,\"name\":\"Ashok Arora\",\"email\":\"arora_ashok@becker-spinka.name\",\"gender\":\"male\",\"status\":\"active\"},{\"id\":3590,\"name\":\"Sarala Gill\",\"email\":\"gill_sarala@skiles.name\",\"gender\":\"male\",\"status\":\"active\"},{\"id\":3589,\"name\":\"Amodini Mehra\",\"email\":\"mehra_amodini@lowe-hermann.com\",\"gender\":\"male\",\"status\":\"active\"},{\"id\":3587,\"name\":\"Rev. Himani Kaniyar\",\"email\":\"kaniyar_rev_himani@keeling-welch.org\",\"gender\":\"male\",\"status\":\"active\"}]}","line":7}},{"name":"status 200","result":{"duration":28900,"status":"passed"},"match":{"location":"karate","arguments":[]},"keyword":"Then","line":8},{"name":"print response","result":{"duration":944000,"status":"passed"},"match":{"location":"karate","arguments":[]},"keyword":"*","line":9,"doc_string":{"content_type":"","value":"16:53:42.126 [print] {\n  \"data\": [\n    {\n      \"gender\": \"male\",\n      \"name\": \"Aatmaj Sinha\",\n      \"id\": 3616,\n      \"email\": \"sinha_aatmaj@zemlak-pfannerstill.net\",\n      \"status\": \"active\"\n    },\n    {\n      \"gender\": \"male\",\n      \"name\": \"Chakravarti Kaul\",\n      \"id\": 3614,\n      \"email\": \"chakravarti_kaul@thiel.net\",\n      \"status\": \"active\"\n    },\n    {\n      \"gender\": \"male\",\n      \"name\": \"Chandini Butt\",\n      \"id\": 3609,\n      \"email\": \"chandini_butt@johnson.info\",\n      \"status\": \"active\"\n    },\n    {\n      \"gender\": \"male\",\n      \"name\": \"Bala Mehra\",\n      \"id\": 3607,\n      \"email\": \"bala_mehra@schultz.biz\",\n      \"status\": \"active\"\n    },\n    {\n      \"gender\": \"male\",\n      \"name\": \"Navin Guha Jr.\",\n      \"id\": 3602,\n      \"email\": \"jr_guha_navin@kassulke.name\",\n      \"status\": \"active\"\n    },\n    {\n      \"gender\": \"male\",\n      \"name\": \"Vaishnavi Bharadwaj\",\n      \"id\": 3600,\n      \"email\": \"vaishnavi_bharadwaj@jones.net\",\n      \"status\": \"active\"\n    },\n    {\n      \"gender\": \"male\",\n      \"name\": \"Ashok Arora\",\n      \"id\": 3592,\n      \"email\": \"arora_ashok@becker-spinka.name\",\n      \"status\": \"active\"\n    },\n    {\n      \"gender\": \"male\",\n      \"name\": \"Sarala Gill\",\n      \"id\": 3590,\n      \"email\": \"gill_sarala@skiles.name\",\n      \"status\": \"active\"\n    },\n    {\n      \"gender\": \"male\",\n      \"name\": \"Amodini Mehra\",\n      \"id\": 3589,\n      \"email\": \"mehra_amodini@lowe-hermann.com\",\n      \"status\": \"active\"\n    },\n    {\n      \"gender\": \"male\",\n      \"name\": \"Rev. Himani Kaniyar\",\n      \"id\": 3587,\n      \"email\": \"kaniyar_rev_himani@keeling-welch.org\",\n      \"status\": \"active\"\n    }\n  ],\n  \"meta\": {\n    \"pagination\": {\n      \"total\": 889,\n      \"pages\": 89,\n      \"limit\": 10,\n      \"links\": {\n        \"next\": \"https:\/\/gorest.co.in\/public\/v1\/users?page=2\",\n        \"current\": \"https:\/\/gorest.co.in\/public\/v1\/users?page=1\",\n        \"previous\": null\n      },\n      \"page\": 1\n    }\n  }\n}","line":9}}]},{"line":11,"name":"get all active users and get the count","description":"","id":"get-all-active-users-and-get-the-count","type":"scenario","keyword":"Scenario","steps":[{"name":"def query = {status:'active'}","result":{"duration":138100,"status":"passed"},"match":{"location":"karate","arguments":[]},"keyword":"*","line":12},{"name":"url baseUrl+'\/public\/v2\/users'","result":{"duration":13655200,"status":"passed"},"match":{"location":"karate","arguments":[]},"keyword":"Given","line":13},{"name":"params query","result":{"duration":149300,"status":"passed"},"match":{"location":"karate","arguments":[]},"keyword":"And","line":14},{"name":"method GET","result":{"duration":1692845900,"status":"passed"},"match":{"location":"karate","arguments":[]},"keyword":"When","line":15,"doc_string":{"content_type":"","value":"16:53:42.151 request:\n1 > GET https:\/\/gorest.co.in\/public\/v2\/users?status=active\n1 > Accept-Encoding: gzip,deflate\n1 > Connection: Keep-Alive\n1 > Host: gorest.co.in\n1 > User-Agent: Apache-HttpClient\/4.5.12 (Java\/11.0.15.1)\n\n16:53:43.845 response time in milliseconds: 1689.47\n1 < 200\n1 < CF-Cache-Status: DYNAMIC\n1 < CF-RAY: 72fc48fb9eb552ef-LAX\n1 < Cache-Control: max-age=0, private, must-revalidate\n1 < Connection: keep-alive\n1 < Content-Type: application\/json; charset=utf-8\n1 < Date: Sun, 24 Jul 2022 11:23:41 GMT\n1 < ETag: W\/\"25d86b0119dba780ca48bc4b0f027ae1\"\n1 < Expect-CT: max-age=604800, report-uri=\"https:\/\/report-uri.cloudflare.com\/cdn-cgi\/beacon\/expect-ct\"\n1 < NEL: {\"success_fraction\":0,\"report_to\":\"cf-nel\",\"max_age\":604800}\n1 < Referrer-Policy: strict-origin-when-cross-origin\n1 < Report-To: {\"endpoints\":[{\"url\":\"https:\\\/\\\/a.nel.cloudflare.com\\\/report\\\/v3?s=IY2cHOIyQ5VN5ssoF0RgA7uIWpKfJz9wb6n4f%2BXLK2XYJC%2BA0xka%2BDV8q95oHfaN9TAg2C%2F5KbMLE3th0qaP%2FUsLibzPcXOZuxREjxqaAcWA32oQJS61UGMMyv7qWq0%3D\"}],\"group\":\"cf-nel\",\"max_age\":604800}\n1 < Server: cloudflare\n1 < Strict-Transport-Security: max-age=63072000; includeSubDomains\n1 < Transfer-Encoding: chunked\n1 < Vary: [Accept-Encoding, Origin]\n1 < X-Content-Type-Options: nosniff\n1 < X-Download-Options: noopen\n1 < X-Frame-Options: SAMEORIGIN\n1 < X-Links-Current: https:\/\/gorest.co.in\/public\/v2\/users?page=1\n1 < X-Links-Next: https:\/\/gorest.co.in\/public\/v2\/users?page=2\n1 < X-Links-Previous: \n1 < X-Pagination-Limit: 10\n1 < X-Pagination-Page: 1\n1 < X-Pagination-Pages: 177\n1 < X-Pagination-Total: 1762\n1 < X-Permitted-Cross-Domain-Policies: none\n1 < X-Request-Id: 763cad06-dc59-479f-b06e-beec6820c5c6\n1 < X-Runtime: 0.007152\n1 < X-XSS-Protection: 0\n1 < alt-svc: h3=\":443\"; ma=86400, h3-29=\":443\"; ma=86400\n[{\"id\":3628,\"name\":\"Brahmabrata Sinha\",\"email\":\"sinha_brahmabrata@corwin.co\",\"gender\":\"female\",\"status\":\"active\"},{\"id\":3627,\"name\":\"The Hon. Naveen Guneta\",\"email\":\"hon_the_naveen_guneta@kertzmann.io\",\"gender\":\"female\",\"status\":\"active\"},{\"id\":3625,\"name\":\"Rita Kapoor\",\"email\":\"kapoor_rita@gusikowski.name\",\"gender\":\"female\",\"status\":\"active\"},{\"id\":3624,\"name\":\"Tarun Rana\",\"email\":\"tarun_rana@nikolaus-stanton.info\",\"gender\":\"female\",\"status\":\"active\"},{\"id\":3618,\"name\":\"Kamala Prajapat\",\"email\":\"prajapat_kamala@wintheiser-reichel.io\",\"gender\":\"female\",\"status\":\"active\"},{\"id\":3616,\"name\":\"Aatmaj Sinha\",\"email\":\"sinha_aatmaj@zemlak-pfannerstill.net\",\"gender\":\"male\",\"status\":\"active\"},{\"id\":3614,\"name\":\"Chakravarti Kaul\",\"email\":\"chakravarti_kaul@thiel.net\",\"gender\":\"male\",\"status\":\"active\"},{\"id\":3612,\"name\":\"Bhuvanesh Gill\",\"email\":\"bhuvanesh_gill@hirthe.co\",\"gender\":\"female\",\"status\":\"active\"},{\"id\":3610,\"name\":\"Hiranmaya Naik\",\"email\":\"naik_hiranmaya@douglas.org\",\"gender\":\"female\",\"status\":\"active\"},{\"id\":3609,\"name\":\"Chandini Butt\",\"email\":\"chandini_butt@johnson.info\",\"gender\":\"male\",\"status\":\"active\"}]","line":15}},{"name":"status 200","result":{"duration":11200,"status":"passed"},"match":{"location":"karate","arguments":[]},"keyword":"Then","line":16},{"name":"def jsonResponse = response","result":{"duration":19300,"status":"passed"},"match":{"location":"karate","arguments":[]},"keyword":"*","line":17},{"name":"print jsonResponse","result":{"duration":442200,"status":"passed"},"match":{"location":"karate","arguments":[]},"keyword":"*","line":18,"doc_string":{"content_type":"","value":"16:53:43.846 [print] [\n  {\n    \"gender\": \"female\",\n    \"name\": \"Brahmabrata Sinha\",\n    \"id\": 3628,\n    \"email\": \"sinha_brahmabrata@corwin.co\",\n    \"status\": \"active\"\n  },\n  {\n    \"gender\": \"female\",\n    \"name\": \"The Hon. Naveen Guneta\",\n    \"id\": 3627,\n    \"email\": \"hon_the_naveen_guneta@kertzmann.io\",\n    \"status\": \"active\"\n  },\n  {\n    \"gender\": \"female\",\n    \"name\": \"Rita Kapoor\",\n    \"id\": 3625,\n    \"email\": \"kapoor_rita@gusikowski.name\",\n    \"status\": \"active\"\n  },\n  {\n    \"gender\": \"female\",\n    \"name\": \"Tarun Rana\",\n    \"id\": 3624,\n    \"email\": \"tarun_rana@nikolaus-stanton.info\",\n    \"status\": \"active\"\n  },\n  {\n    \"gender\": \"female\",\n    \"name\": \"Kamala Prajapat\",\n    \"id\": 3618,\n    \"email\": \"prajapat_kamala@wintheiser-reichel.io\",\n    \"status\": \"active\"\n  },\n  {\n    \"gender\": \"male\",\n    \"name\": \"Aatmaj Sinha\",\n    \"id\": 3616,\n    \"email\": \"sinha_aatmaj@zemlak-pfannerstill.net\",\n    \"status\": \"active\"\n  },\n  {\n    \"gender\": \"male\",\n    \"name\": \"Chakravarti Kaul\",\n    \"id\": 3614,\n    \"email\": \"chakravarti_kaul@thiel.net\",\n    \"status\": \"active\"\n  },\n  {\n    \"gender\": \"female\",\n    \"name\": \"Bhuvanesh Gill\",\n    \"id\": 3612,\n    \"email\": \"bhuvanesh_gill@hirthe.co\",\n    \"status\": \"active\"\n  },\n  {\n    \"gender\": \"female\",\n    \"name\": \"Hiranmaya Naik\",\n    \"id\": 3610,\n    \"email\": \"naik_hiranmaya@douglas.org\",\n    \"status\": \"active\"\n  },\n  {\n    \"gender\": \"male\",\n    \"name\": \"Chandini Butt\",\n    \"id\": 3609,\n    \"email\": \"chandini_butt@johnson.info\",\n    \"status\": \"active\"\n  }\n]","line":18}},{"name":"def userCount = jsonResponse.length","result":{"duration":6736400,"status":"passed"},"match":{"location":"karate","arguments":[]},"keyword":"*","line":19},{"name":"print userCount","result":{"duration":164700,"status":"passed"},"match":{"location":"karate","arguments":[]},"keyword":"*","line":20,"doc_string":{"content_type":"","value":"16:53:43.847 [print] 10","line":20}},{"name":"match userCount == 10","result":{"duration":3767800,"status":"passed"},"match":{"location":"karate","arguments":[]},"keyword":"*","line":21}]}],"name":"src\/test\/java\/Features\/004_GET_Query_params.feature","description":"Sample get query param request API","id":"sample-get-query-param-request-api","keyword":"Feature","uri":"src\/test\/java\/Features\/004_GET_Query_params.feature"}]